  <% @my_games.each do |my| %>
    <%= my.name %>
    <%= my.id %>
  <% end %>
  <% s = MyGame.where(game_id: 12 ) %>
  <%= s.name %>




  <% @my_games.each do |my| %>
    <%= my.user.id %>
    <%= my.game.id %>   
  <% end %>
  <% s = MyGame.where(game_id: 12 ) %>
  <%= s.name %>
  
  //Cards
  <td><%= game.price %></td>
        <td><%= game.picture %></td>
        <td><%= game.id %></td>
        
        
        <!--Estou definindo o usuario administrador-->
        <% if current_user.email == 'abel@id.uff.br' %>
          <td><%= link_to 'Edit', edit_game_path(game) %></td>
          <td><%= link_to 'Destroy', game, method: :delete, data: { confirm: 'Are you sure?' } %></td>
          <%= game.description %>
        <% end %>